answer	qid
	mc500.train.25.8
	mc500.train.25.12
	mc500.train.25.20
	mc500.train.111.5
	mc500.train.111.14
	mc500.train.0.17
	mc500.train.0.20
	mc500.train.0.23
	mc500.train.0.24
	mc500.train.18.24
	mc500.train.18.25
	mc500.train.18.26
	fables-06-31
	fables-06-32
	fables-06-33
	fables-06-34
	fables-06-35
	fables-06-36
	fables-06-37
	blogs-06-23
	blogs-06-24
	blogs-06-25
	blogs-06-26
	blogs-06-27
