answer	qid
She that	mc500.train.25.8
He	mc500.train.25.12
Maxine one day 's dad They	mc500.train.25.20
sat and finished his in the kitchen .	mc500.train.111.5
Will got hungry and went inside to get a . He n't want chicken , gravy or butter on biscuit	mc500.train.111.14
Alyssa got to after a long trip . But wanted some time herself the beach , so she went there first	mc500.train.0.17
enjoyed 's special .	mc500.train.0.20
But she wanted some time to herself at the beach , so went there first .	mc500.train.0.23
from Atlanta to Miami herself a restaurant	mc500.train.0.24
Mother 's Day	mc500.train.18.24
Finally , her mother woke up at 8:30 AM and Kelly was excited !	mc500.train.18.25
After all of , went inside and tied them together with string .	mc500.train.18.26
The lion	fables-06-31
The lion	fables-06-32
yes	fables-06-33
The idea of so insignificant a creature ever being able to anything for him amused Lion much that he laughed aloud , and good-humouredly let it go . said the Mouse `` you at me when I promised would repay : but now see even can help ''	fables-06-34
One day Lion got entangled in a net which had been spread for game by some hunters , Mouse heard and recognised his of anger ran to the spot .	fables-06-35
One day Lion got entangled in a net which had been spread for game by some hunters , and Mouse heard recognised his roars of anger ran the .	fables-06-36
The lion mouse	fables-06-37
The oven malfunctioned ... it supposed to be baking 350 degrees but somehow broiler came on and got stuck ? my went get a batch of cookies found them in flames .	blogs-06-23
my a batch of and found them in flames .	blogs-06-24
to keep the fire from spreading	blogs-06-25
He oven and flames shot all the way up to ceiling !	blogs-06-26
besides the range	blogs-06-27
